^D:\PROGRAMMING\УНИВЕР\LABORATORY-WORKS\3 СЕМЕСТР\VARIANT13\LAB3\DYNARRAY.CPP|D:\PROGRAMMING\УНИВЕР\LABORATORY-WORKS\3 СЕМЕСТР\VARIANT13\LAB3\TEST.CPP
D:\PROGRAMMING\Универ\LABORATORY-WORKS\3 Семестр\VARIANT13\LAB3\DEBUG\VC141.PDB
D:\PROGRAMMING\Универ\LABORATORY-WORKS\3 Семестр\VARIANT13\LAB3\DEBUG\VC141.IDB
D:\PROGRAMMING\Универ\LABORATORY-WORKS\3 Семестр\VARIANT13\LAB3\DEBUG\DYNARRAY.OBJ
D:\PROGRAMMING\Универ\LABORATORY-WORKS\3 Семестр\VARIANT13\LAB3\DEBUG\TEST.OBJ
^D:\PROGRAMMING\УНИВЕР\LABORATORY-WORKS\3 СЕМЕСТР\VARIANT13\LAB3\DYNARRAY.CPP
D:\PROGRAMMING\УНИВЕР\LABORATORY-WORKS\3 СЕМЕСТР\VARIANT13\LAB3\DEBUG\VC141.PDB
^D:\PROGRAMMING\УНИВЕР\LABORATORY-WORKS\3 СЕМЕСТР\VARIANT13\LAB3\TEST.CPP
D:\PROGRAMMING\УНИВЕР\LABORATORY-WORKS\3 СЕМЕСТР\VARIANT13\LAB3\DEBUG\VC141.PDB
D:\PROGRAMMING\Универ\LABORATORY-WORKS\3 Семестр\VARIANT13\LAB3\DEBUG\VC141.IDB
D:\PROGRAMMING\Универ\LABORATORY-WORKS\3 Семестр\VARIANT13\LAB3\DEBUG\TEST.OBJ
