^D:\PROGRAMMING\УНИВЕР\LABORATORY-WORKS\3 СЕМЕСТР\VARIANT13\LAB3\DEBUG\DYNARRAY.OBJ|D:\PROGRAMMING\УНИВЕР\LABORATORY-WORKS\3 СЕМЕСТР\VARIANT13\LAB3\DEBUG\TEST.OBJ
D:\PROGRAMMING\Универ\LABORATORY-WORKS\3 Семестр\VARIANT13\DEBUG\LAB3.EXE
D:\PROGRAMMING\Универ\LABORATORY-WORKS\3 Семестр\VARIANT13\DEBUG\LAB3.ILK
D:\PROGRAMMING\УНИВЕР\LABORATORY-WORKS\3 СЕМЕСТР\VARIANT13\DEBUG\LAB3.PDB
