-2.32
-4.78
4.46
-4.72
-7.82
-2.73
-1.76
2.01
-2.9
-1.49
-6.08
-2.39
5.5
1.14
-5.82
6.88
7.1
-2.57
-6
-5.33
0.45
7.1
-7.58
-4.61
-0.26
-0.32
-6.12
6.17
6.35
2.97
-7.01
1.23
6.97
4.46
7.03
4.05
-5.61
3.14
-2.52
-4.59
7.38
-7.62
5.66
4.66
3.08
0.53
-6.73
-3.39
-1.81
-7.13
6.77
2.76
-4.86
-1.66
-0.52
-1.42
-5.2
1.07
3.54
0.5
-4.62
0.06
3.66
2.13
-2.49
0.68
-1.37
-6.96
2.11
-1.88
4.49
-4.05
7.94
6.58
-4.72
0.06
-6.57
-4.25
0.3
7.21
-1.59
5.26
-0.02
5.47
4.2
-1.78
-1.92
0.63
-3.03
0.45
1.25
1.31
7.6
4.98
-7.97
-0.69
-3.29
-4.47
-0.86
-5.61
-6.11
-7.77
2.5
-7.94
-3.62
2.81
2.81
-3.45
-4.94
7.41
-2.86
7.04
-7.24
4.32
-5.92
-1.89
-7.92
6.19
5.92
7.28
-5.41
6
4.06
-6.34
4.86
-4.83
-3.66
-5.04
6.55
3.96
-4.65
5.89
4.6
-2.1
5.31
-1.82
-5.24
-0.09
1.08
-6.62
3.41
-6.48
-2.44
-2.44
-4.7
2.21
0.54
-4.73
2.89
1.91
-0.78
-1.48
-2.4
-0.14
7.8
-4.11
-3.84
0.83
-4.81
-6.79
-1.53
-0.15
-2
-0.91
4.06
-0.75
-5.56
2.86
7.01
3.9
-4.66
0.16
-2.9
4.54
-4.13
-6.94
0.43
-1.5
6.35
-5.35
2.62
-6.94
0.06
-3.37
-3.26
4.82
0.28
-3.26
-1.9
1.42
-5.99
1.92
-3.28
-0.13
2.91
-4.45
3.52
6.47
1.49
4.04
-0.23
